…
There are `134` aisles and the most items ordered from
`fresh vegetables`

``` r
instacart %>% 
  group_by(aisle_id, aisle) %>%
  summarize(count = n()) %>%
  arrange(desc(count))
```

    ## `summarise()` has grouped output by 'aisle_id'. You can override using the `.groups` argument.

    ## # A tibble: 134 × 3
    ## # Groups:   aisle_id [134]
    ##    aisle_id aisle                          count
    ##       <int> <chr>                          <int>
    ##  1       83 fresh vegetables              150609
    ##  2       24 fresh fruits                  150473
    ##  3      123 packaged vegetables fruits     78493
    ##  4      120 yogurt                         55240
    ##  5       21 packaged cheese                41699
    ##  6      115 water seltzer sparkling water  36617
    ##  7       84 milk                           32644
    ##  8      107 chips pretzels                 31269
    ##  9       91 soy lactosefree                26240
    ## 10      112 bread                          23635
    ## # … with 124 more rows
…
``` r
excellent_df = brfss_df %>%
  filter(response == "Excellent") %>% 
  group_by(state, year) %>% 
  summarize(mean_data_value = mean(data_value, na.rm = TRUE))
```

    ## `summarise()` has grouped output by 'state'. You can override using the `.groups` argument.

``` r
excellent_df
```

    ## # A tibble: 443 × 3
    ## # Groups:   state [51]
    ##    state  year mean_data_value
    ##    <chr> <int>           <dbl>
    ##  1 AK     2002            27.9
    ##  2 AK     2003            24.8
    ##  3 AK     2004            23.0
    ##  4 AK     2005            23.8
    ##  5 AK     2007            23.5
    ##  6 AK     2008            20.6
    ##  7 AK     2009            23.2
    ##  8 AL     2002            18.5
    ##  9 AL     2003            19.5
    ## 10 AL     2004            20  
    ## # … with 433 more rows
…
accel_df
```

    ## # A tibble: 50,400 × 6
    ##     week day_id day    minute activity_counts weekend_or_weekday
    ##    <int>  <int> <chr>   <dbl>           <dbl> <chr>             
    ##  1     1      1 Friday      1            88.4 weekday           
    ##  2     1      1 Friday      2            82.2 weekday           
    ##  3     1      1 Friday      3            64.4 weekday           
    ##  4     1      1 Friday      4            70.0 weekday           
    ##  5     1      1 Friday      5            75.0 weekday           
    ##  6     1      1 Friday      6            66.3 weekday           
    ##  7     1      1 Friday      7            53.8 weekday           
    ##  8     1      1 Friday      8            47.8 weekday           
    ##  9     1      1 Friday      9            55.5 weekday           
    ## 10     1      1 Friday     10            43.0 weekday           
    ## # … with 50,390 more rows
…
